[
  {
    "name": "Accounting / AI / Fintech",
    "id": 1
  },
  {
    "name": "Agtech",
    "id": 3
  },
  {
    "name": "AI / IOT",
    "id": 4
  },
  {
    "name": "App-Recycling",
    "id": 5
  },
  {
    "name": "Apps",
    "id": 6
  },
  {
    "name": "Artificial Intelligence",
    "id": 7
  },
  {
    "name": "Big Data / Open Date",
    "id": 8
  },
  {
    "name": "Cloud/SAAS",
    "id": 10
  },
  {
    "name": "Construction Management Software",
    "id": 12
  },
  {
    "name": "E-commerce",
    "id": 13
  },
  {
    "name": "E-commerce, Marketplace B2B",
    "id": 14
  },
  {
    "name": "Fintech",
    "id": 17
  },
  {
    "name": "Health",
    "id": 21
  },
  {
    "name": "Healthcare",
    "id": 22
  },
  {
    "name": "IOT",
    "id": 26
  },
  {
    "name": "IOT Cyber Security ",
    "id": 27
  },
  {
    "name": "IT",
    "id": 28
  },
  {
    "name": "IT and Software",
    "id": 29
  },
  {
    "name": "IT Industry / Energy",
    "id": 30
  },
  {
    "name": "IT/Mobility",
    "id": 31
  },
  {
    "name": "Life sciences",
    "id": 33
  },
  {
    "name": "Logistics  ",
    "id": 34
  },
  {
    "name": "Logistics aviation",
    "id": 35
  },
  {
    "name": "Marketing services",
    "id": 36
  },
  {
    "name": "Media",
    "id": 38
  },
  {
    "name": "Medical 3d printing",
    "id": 39
  },
  {
    "name": "Nanotechnology",
    "id": 41
  },
  {
    "name": "Operational Technology",
    "id": 42
  },
  {
    "name": "Real estate",
    "id": 43
  },
  {
    "name": "Road Freight Marketplace",
    "id": 44
  },
  {
    "name": "Services",
    "id": 48
  },
  {
    "name": "Tech",
    "id": 52
  },
  {
    "name": "Technology",
    "id": 53
  },
  {
    "name": "Technology / Telecommunications / Marketing",
    "id": 54
  },
  {
    "name": "Technology TI",
    "id": 55
  },
  {
    "name": "Telecommunications  ",
    "id": 56
  },
  {
    "name": "Telecommunications - utilities",
    "id": 57
  },
  {
    "name": "TIC",
    "id": 58
  },
  {
    "name": "Tourism",
    "id": 59
  }
]